<?xml version="1.0" standalone="no"?>
<!DOCTYPE svg PUBLIC "-//W3C//DTD SVG 1.1//EN" "http://www.w3.org/Graphics/SVG/1.1/DTD/svg11.dtd" >
<svg xmlns="http://www.w3.org/2000/svg">
<metadata>Generated by IcoMoon</metadata>
<defs>
<font id="icomoon" horiz-adv-x="1024">
<font-face units-per-em="1024" ascent="960" descent="-64" />
<missing-glyph horiz-adv-x="1024" />
<glyph unicode="&#x20;" horiz-adv-x="512" d="" />
<glyph unicode="&#xe900;" glyph-name="no-trash" horiz-adv-x="901" d="M637.731 786.792c39.78 34.968 64.938 86.202 64.938 143.208 0 16.568-13.433 30-30.001 30h-449.868c-16.568 0-30-13.432-30-30 0-57.006 25.154-108.24 64.939-143.208-120.547-33.103-257.739-150.419-257.739-338.792v-353.466c0-87.56 70.83-158.534 158.534-158.534h578.4c87.558 0 158.534 70.83 158.534 158.534v353.466c0 220.893-175.974 316.338-257.737 338.792zM256.276 900h382.917c-13.593-57.636-65.462-100.666-127.191-100.666h-128.535c-61.729 0-113.601 43.030-127.191 100.666zM835.467 94.534c0-54.434-44.032-98.533-98.533-98.533h-578.4c-54.434 0-98.534 44.032-98.534 98.533v353.466c0 158.726 126.338 286.861 283.050 291.207l-77.195-77.195c-11.717-11.715-11.717-30.71 0-42.426 11.713-11.715 30.71-11.715 42.424 0l119.749 119.749h39.414l119.749-119.749c11.715-11.715 30.71-11.715 42.426 0s11.715 30.71 0 42.426l-77.197 77.195c156.787-4.348 283.048-132.569 283.048-291.207v-353.466zM439.546 450.132l-13.052-13.052c-11.717-11.713-11.717-30.71 0-42.424 11.717-11.719 30.712-11.715 42.426 0l64.266 64.266c5.626 5.626 8.788 13.255 8.788 21.211s-3.16 15.585-8.786 21.211l-64.268 64.268c-11.717 11.719-30.71 11.715-42.426 0s-11.717-30.71 0-42.426l13.054-13.054h-23.974c-87.417 0-158.534-71.117-158.534-158.534v-64.266c0-16.568 13.431-29.999 29.999-29.999s30.001 13.431 30.001 29.999v64.268c0 54.331 44.202 98.533 98.533 98.533l23.972-0.002zM608.375 413.739c-16.568 0-30.001-13.431-30.001-29.999v-64.266c0-54.331-44.202-98.533-98.533-98.533h-23.972l13.052 13.052c11.717 11.715 11.717 30.71 0 42.426s-30.71 11.713-42.426 0l-64.266-64.266c-5.626-5.626-8.788-13.257-8.788-21.213 0-7.954 3.16-15.585 8.786-21.211l64.268-64.268c11.717-11.719 30.712-11.715 42.426 0 11.717 11.715 11.717 30.71 0 42.426l-13.054 13.054h23.974c87.415 0 158.534 71.119 158.534 158.534v64.266c0 16.568-13.431 29.999-29.999 29.999z" />
<glyph unicode="&#xe901;" glyph-name="performance" horiz-adv-x="1126" d="M32.681 110.297h427.030v-108.935h-101.605c-18.047 0-32.68-14.633-32.68-32.682 0-18.047 14.633-32.68 32.68-32.68h399.294c18.049 0 32.682 14.633 32.682 32.68 0 18.049-14.633 32.682-32.682 32.682h-101.603v108.935h427.028c18.049 0 32.682 14.633 32.682 32.682v784.34c0 18.048-14.633 32.681-32.682 32.681h-1050.144c-18.048 0-32.681-14.632-32.681-32.681v-784.34c0-18.049 14.632-32.682 32.681-32.682zM590.434 1.362h-65.362v108.935h65.362v-108.935zM65.362 894.638h984.783v-718.979c-56.588 0-942.989 0-984.783 0v718.979zM369.205 632.656c12.763-12.761 33.454-12.761 46.217 0s12.763 33.456 0 46.217l-26.655 26.655c39.498 31.14 86.376 50.554 136.331 56.462v-47.973c0-18.049 14.631-32.68 32.68-32.68s32.68 14.631 32.68 32.68v47.973c49.957-5.907 96.836-25.322 136.329-56.46l-26.653-26.653c-12.763-12.761-12.763-33.456 0-46.219 12.761-12.761 33.454-12.761 46.217 0l26.647 26.649c31.14-39.506 50.553-86.385 56.461-136.323h-47.968c-18.049 0-32.68-14.631-32.68-32.68s14.631-32.682 32.68-32.682h47.966c-5.908-49.938-25.326-96.813-56.463-136.317l-26.642 26.644c-12.761 12.765-33.456 12.761-46.217 0-12.763-12.759-12.763-33.452 0-46.217l51.12-51.122c12.761-12.765 33.462-12.763 46.23 0.004 63.986 64.018 99.238 149.096 99.269 239.577 0 0.037 0.006 0.074 0.006 0.113 0 0.037-0.004 0.072-0.006 0.109-0.059 187.263-151.587 338.868-338.975 338.868-187.277 0-338.915-151.482-338.973-338.87 0-0.037-0.006-0.072-0.006-0.109s0.006-0.074 0.006-0.113c0.031-90.481 35.283-175.559 99.269-239.577 12.786-12.79 33.497-12.737 46.23-0.004l51.12 51.122c12.763 12.763 12.763 33.454 0 46.217-12.759 12.765-33.454 12.761-46.217 0l-26.642-26.644c-31.138 39.504-50.555 86.378-56.463 136.317h47.966c18.049 0 32.68 14.633 32.68 32.682s-14.631 32.68-32.68 32.68h-47.968c5.906 49.938 25.321 96.819 56.459 136.323l26.647-26.649zM557.72 392.253c54.061 0 98.044 43.983 98.044 98.044 0 15.114-3.443 29.438-9.578 42.238l19.636 19.636c12.763 12.761 12.763 33.454 0 46.217-12.759 12.761-33.454 12.761-46.217 0l-19.632-19.632c-12.802 6.14-27.13 9.585-42.25 9.585-54.059 0-98.042-43.983-98.042-98.042 0-54.061 43.981-98.046 98.040-98.046zM557.72 522.977c18.022 0 32.682-14.664 32.682-32.68 0-18.020-14.662-32.682-32.682-32.682s-32.68 14.662-32.68 32.682c0 18.018 14.66 32.68 32.68 32.68z" />
<glyph unicode="&#xe902;" glyph-name="antivirus" horiz-adv-x="942" d="M916.668 730.862h-0.004c-77.375 17.629-131.793 85.925-132.34 166.085v0.008c-0.096 13.846-9.654 25.826-23.132 28.994h-0.004c-193.221 45.402-389.159 45.402-582.374 0h-0.004c-13.48-3.166-23.040-15.15-23.134-28.996v-0.006c-0.544-80.16-54.966-148.456-132.34-166.085h-0.004c-13.65-3.109-23.332-15.247-23.332-29.245v-133.732c0-141.335 44.094-276.343 127.518-390.431 83.422-114.088 198.706-197.188 333.386-240.042 5.919-1.882 12.274-1.882 18.192 0 134.586 42.824 249.801 125.837 333.208 239.798 83.747 114.424 127.697 253.151 127.697 394.947v129.46c0 13.998-9.685 26.137-23.333 29.245zM880.001 567.884c0-259.865-164.358-487.791-410.001-570.175-245.643 82.385-410 310.311-410 570.175v111.127c41.184 14.15 77.942 39.961 105.22 74.252 27.182 34.17 44.188 75.776 49.029 119.174 169.82 36.726 341.686 36.724 511.5 0 4.844-43.398 21.848-85.004 49.031-119.174 27.279-34.292 64.037-60.103 105.22-74.252v-111.127zM770.001 568.001c-16.568 0-30.001-13.433-30.001-30.001v-19.999h-62.151c-5.104 35.525-19.12 68.211-39.725 95.699l44.009 44.007 14.141-14.141c11.715-11.717 30.71-11.717 42.426 0s11.715 30.71 0 42.426l-70.711 70.71c-11.715 11.716-30.71 11.716-42.426 0s-11.715-30.711 0-42.425l14.143-14.143-44.009-44.007c-27.486 20.603-60.172 34.617-95.697 39.721v62.153h19.999c16.568 0 30.001 13.432 30.001 30s-13.433 30-30.001 30h-100c-16.568 0-29.999-13.432-29.999-30s13.431-30 29.999-30h20.001v-62.153c-35.527-5.104-68.213-19.118-95.699-39.723l-44.007 44.007 14.141 14.146c11.717 11.715 11.717 30.71 0 42.425-11.715 11.716-30.71 11.716-42.426 0l-70.711-70.712c-11.716-11.717-11.716-30.71 0-42.426s30.71-11.717 42.426 0l14.141 14.143 44.007-44.007c-20.601-27.486-34.619-60.172-39.723-95.699h-62.15v19.999c0 16.568-13.432 30.001-30 30.001s-30-13.433-30-30.001v-100c0-16.568 13.432-29.999 30-29.999s30 13.431 30 29.999v20.001h62.152c5.104-35.527 19.12-68.213 39.723-95.701l-44.007-44.007-14.141 14.141c-11.717 11.717-30.71 11.717-42.426 0s-11.716-30.71 0-42.426l70.711-70.711c11.717-11.717 30.712-11.717 42.426 0 11.717 11.717 11.717 30.71 0 42.426l-14.141 14.143 44.007 44.007c27.486-20.601 60.172-34.619 95.699-39.723v-62.151h-20.001c-16.568 0-29.999-13.433-29.999-29.999 0-16.568 13.431-30.001 29.999-30.001h100c16.568 0 30.001 13.433 30.001 30.001 0 16.566-13.433 29.999-30.001 29.999h-19.999v62.153c35.525 5.104 68.211 19.12 95.697 39.721l44.009-44.007-14.143-14.141c-11.715-11.717-11.715-30.71 0-42.426 11.717-11.717 30.712-11.717 42.426 0l70.711 70.709c11.715 11.717 11.715 30.71 0 42.426-11.717 11.717-30.712 11.717-42.426 0l-14.143-14.141-44.007 44.007c20.603 27.486 34.619 60.172 39.725 95.701h62.149v-20.001c0-16.568 13.433-29.999 30.001-29.999s29.999 13.431 29.999 29.999v100c0 16.568-13.431 30.001-29.999 30.001zM470 338c-82.708 0-150 67.289-150 150s67.291 150 150 150c82.711 0 150.002-67.289 150.002-150s-67.291-150-150.002-150zM470 518.001c16.568 0 30.001 13.431 30.001 29.999s-13.433 30.001-30.001 30.001c-16.568 0-29.999-13.433-29.999-30.001s13.431-29.999 29.999-29.999zM409.999 418.001c16.568 0 30.001 13.431 30.001 29.999s-13.433 29.999-30.001 29.999c-16.568 0-29.999-13.431-29.999-29.999s13.431-29.999 29.999-29.999zM530 418.001c16.568 0 30.001 13.431 30.001 29.999s-13.433 29.999-30.001 29.999c-16.568 0-29.999-13.431-29.999-29.999s13.431-29.999 29.999-29.999z" />
<glyph unicode="&#xe903;" glyph-name="textures" d="M947.112 868.916c-2.961 6.224-7.977 11.238-14.203 14.2-73.718 35.074-206.584 76.884-420.909 76.884-214.331 0-347.198-41.812-420.916-76.888-6.224-2.96-11.238-7.976-14.2-14.202-35.074-73.716-76.884-206.581-76.884-420.91 0-214.338 41.812-347.202 76.888-420.915 2.962-6.224 7.976-11.239 14.202-14.201 73.718-35.074 206.585-76.884 420.91-76.884 214.331 0 347.197 41.812 420.915 76.888 6.224 2.959 11.239 7.977 14.201 14.203 35.074 73.716 76.884 206.58 76.884 420.909 0 214.338-41.812 347.202-76.888 420.916zM943.208 212.576c-18.67-8.794-46.676-20.013-85.66-30.906 4.284 24.832 8.106 51.917 11.252 81.392 36.030 6.324 64.166 12.99 85.473 18.973-3.119-24.953-6.865-48.075-11.065-69.458zM677.927 5.72c5.954 21.264 12.62 49.394 18.952 85.471 29.499 3.146 56.601 6.969 81.449 11.256-10.897-38.996-22.118-67.002-30.902-85.656-21.395-4.202-44.534-7.95-69.499-11.071zM541.999-3.693v85.918c32.963 0.481 63.875 1.747 92.834 3.652-7.956-41.683-15.972-69.693-21.572-86.44-22.489-1.585-46.256-2.644-71.262-3.129zM410.718-0.563c-5.665 16.88-13.683 44.866-21.623 86.444 28.981-1.909 59.914-3.174 92.903-3.658v-85.918c-25.010 0.487-48.783 1.548-71.281 3.131zM276.574 16.792c-8.794 18.67-20.015 46.676-30.908 85.66 24.832-4.284 51.917-8.106 81.394-11.252 6.324-36.030 12.993-64.166 18.973-85.473-24.951 3.119-48.073 6.865-69.458 11.065zM80.792 683.424c18.67 8.794 46.676 20.013 85.66 30.906-4.286-24.832-8.106-51.917-11.252-81.392-36.030-6.324-64.166-12.99-85.474-18.973 3.12 24.953 6.866 48.075 11.066 69.458zM346.073 890.28c-5.954-21.264-12.62-49.394-18.952-85.472-29.499-3.146-56.601-6.968-81.449-11.256 10.897 38.996 22.118 67.004 30.902 85.656 21.395 4.202 44.534 7.95 69.499 11.072zM482.001 899.692v-85.918c-32.963-0.48-63.875-1.746-92.834-3.65 7.956 41.682 15.972 69.692 21.572 86.44 22.489 1.584 46.256 2.644 71.262 3.128zM613.282 896.564c5.665-16.88 13.683-44.866 21.623-86.444-28.981 1.908-59.914 3.174-92.903 3.656v85.916c25.010-0.484 48.783-1.546 71.281-3.128zM747.426 879.208c8.794-18.67 20.015-46.676 30.908-85.66-24.832 4.286-51.917 8.106-81.394 11.252-6.324 36.030-12.993 64.166-18.973 85.474 24.951-3.12 48.073-6.866 69.458-11.066zM63.436 549.282c16.88 5.665 44.866 13.683 86.444 21.623-1.908-28.981-3.174-59.914-3.656-92.903h-85.916c0.484 25.010 1.546 48.783 3.128 71.281zM963.693 477.999h-85.918c-0.481 32.963-1.747 63.875-3.652 92.834 41.681-7.956 69.693-15.972 86.44-21.57 1.585-22.491 2.644-46.258 3.129-71.264zM817.764 477.999h-95.154c-0.381 40.784-1.532 78.356-3.267 112.959 35.308-2.888 66.492-6.39 93.864-10.187 2.39-31.572 3.99-65.782 4.557-102.773zM662.606 477.999h-120.607v120.605c42.584-0.41 81.525-1.681 117.045-3.586 1.892-35.5 3.154-74.435 3.561-117.019zM541.999 658.61v95.154c37.018-0.567 71.25-2.169 102.838-4.561 3.789-27.369 7.283-58.554 10.16-93.876-34.617 1.741-72.206 2.898-112.998 3.283zM482.001 658.61c-40.784-0.381-78.356-1.532-112.959-3.267 2.888 35.308 6.39 66.492 10.187 93.864 31.572 2.388 65.782 3.987 102.775 4.555v-95.152h-0.002zM482.001 598.606v-120.607h-120.605c0.41 42.586 1.681 81.525 3.584 117.045 35.502 1.892 74.435 3.154 117.021 3.561zM301.39 477.999h-95.154c0.567 37.018 2.169 71.248 4.561 102.838 27.369 3.789 58.554 7.283 93.876 10.16-1.741-34.617-2.898-72.206-3.283-112.998zM60.308 418.001h85.918c0.48-32.963 1.746-63.875 3.65-92.834-41.68 7.956-69.692 15.972-86.44 21.57-1.584 22.491-2.644 46.258-3.128 71.264zM206.236 418.001h95.154c0.381-40.784 1.532-78.356 3.267-112.959-35.308 2.888-66.492 6.39-93.864 10.187-2.39 31.572-3.99 65.782-4.557 102.773zM361.394 418.001h120.607v-120.605c-42.584 0.41-81.525 1.681-117.045 3.586-1.892 35.5-3.154 74.435-3.561 117.019zM482.001 237.39v-95.154c-37.018 0.567-71.25 2.169-102.838 4.561-3.789 27.369-7.283 58.554-10.16 93.876 34.617-1.741 72.206-2.898 112.998-3.283zM541.999 237.39c40.784 0.381 78.356 1.532 112.959 3.267-2.888-35.308-6.39-66.492-10.187-93.864-31.572-2.388-65.782-3.987-102.775-4.555v95.152h0.002zM541.999 297.394v120.607h120.605c-0.41-42.586-1.681-81.525-3.584-117.045-35.502-1.892-74.435-3.154-117.021-3.561zM722.61 418.001h95.154c-0.567-37.018-2.169-71.248-4.561-102.838-27.369-3.789-58.554-7.283-93.876-10.16 1.741 34.617 2.898 72.206 3.283 112.998zM877.775 418.001h85.918c-0.485-25.012-1.544-48.785-3.129-71.283-16.88-5.665-44.866-13.683-86.444-21.623 1.907 28.983 3.172 59.914 3.656 92.905zM943.501 681.918c-0.221-0.154-0.158-0.457 0.168-0.87 4.016-20.732 7.604-43.076 10.611-67.123-21.264 5.954-49.394 12.62-85.471 18.952-3.146 29.499-6.969 56.601-11.256 81.449 38.996-10.897 67.002-22.116 85.656-30.902 0.1-0.498 0.195-1.004 0.293-1.505zM807.256 642.173c-27.296 3.512-57.79 6.701-91.73 9.32-2.611 33.946-5.788 64.459-9.296 91.752 32.412-3.881 61.422-8.589 87.282-13.74 5.153-25.874 9.861-54.903 13.744-87.333zM317.825 743.256c-3.512-27.296-6.701-57.79-9.32-91.73-33.946-2.611-64.459-5.788-91.752-9.296 3.881 32.412 8.589 61.42 13.74 87.282 25.876 5.153 54.903 9.861 87.333 13.744zM69.72 282.073c21.264-5.954 49.394-12.62 85.472-18.952 3.146-29.499 6.968-56.601 11.256-81.449-38.996 10.897-67.004 22.116-85.656 30.902-4.204 21.395-7.952 44.534-11.072 69.499zM216.744 253.827c27.296-3.512 57.79-6.701 91.73-9.32 2.611-33.948 5.788-64.459 9.296-91.752-32.412 3.881-61.422 8.589-87.282 13.74-5.153 25.874-9.861 54.903-13.744 87.333zM706.175 152.744c3.512 27.296 6.701 57.79 9.32 91.73 33.946 2.611 64.459 5.788 91.752 9.296-3.881-32.412-8.589-61.42-13.74-87.282-25.876-5.153-54.903-9.861-87.333-13.744zM925.731 755.626c-22.467 8.238-49.51 16.642-81.682 24.416-7.774 32.17-16.179 59.216-24.418 81.686 30.974-9.072 56.744-18.858 77.791-28.304 9.449-21.048 19.235-46.822 28.31-77.798zM204.374 861.728c-8.238-22.466-16.642-49.51-24.416-81.682-32.17-7.774-59.216-16.178-81.686-24.418 9.072 30.974 18.858 56.746 28.304 77.792 21.048 9.45 46.822 19.236 77.798 28.308zM98.27 140.374c22.466-8.237 49.51-16.642 81.682-24.416 7.774-32.17 16.178-59.216 24.418-81.687-30.974 9.073-56.744 18.858-77.792 28.305-9.448 21.047-19.234 46.821-28.308 77.797zM819.626 34.271c8.237 22.467 16.642 49.51 24.416 81.682 32.17 7.774 59.216 16.179 81.687 24.418-9.073-30.974-18.858-56.746-28.305-77.791-21.047-9.452-46.821-19.237-77.797-28.31z" />
<glyph unicode="&#xe904;" glyph-name="labeles" horiz-adv-x="676" d="M470 496.001h-280c-16.568 0-30-13.433-30-30.001s13.432-29.999 30-29.999h280c16.568 0 30.001 13.431 30.001 29.999s-13.433 30.001-30.001 30.001zM470 376.001h-280c-16.568 0-30-13.433-30-30.001s13.432-29.999 30-29.999h280c16.568 0 30.001 13.431 30.001 29.999s-13.433 30.001-30.001 30.001zM470 256h-280c-16.568 0-30-13.433-30-29.999 0-16.568 13.432-30.001 30-30.001h280c16.568 0 30.001 13.433 30.001 30.001 0 16.566-13.433 29.999-30.001 29.999zM483.588 838.004l51.198 75.092c9.335 13.69 5.802 32.354-7.887 41.688-13.691 9.334-32.354 5.802-41.687-7.886l-58.253-85.44c-30.671 9.444-63.23 14.542-96.958 14.542s-66.286-5.098-96.958-14.542l-58.256 85.44c-9.334 13.688-27.994 17.22-41.688 7.886-13.69-9.334-17.22-27.998-7.886-41.688l51.2-75.092c-104.808-55.35-176.412-165.461-176.412-292.003v-280.001c0-181.963 148.038-330 330-330s330 148.038 330 330v280.001c0 126.54-71.604 236.653-176.413 292.003zM600.001 266c0-148.879-121.123-270-270-270s-270 121.121-270 270v280.001c0 148.877 121.122 269.999 270 269.999 21.039 0 41.525-2.422 61.194-6.998l-38.181-55.997c-7.35 1.948-15.059 2.995-23.013 2.995-49.627 0-90.001-40.373-90.001-90.001 0-49.625 40.374-89.999 90.001-89.999 49.625 0 89.999 40.374 89.999 89.999 0 19.874-6.488 38.257-17.439 53.162l46.971 68.891c89.078-44.167 150.469-136.067 150.469-242.051v-280.001zM359.999 665.999c0-16.542-13.457-29.999-29.999-29.999s-30.001 13.457-30.001 29.999c0 16.542 13.459 30.001 30.001 30.001s29.999-13.457 29.999-30.001z" />
<glyph unicode="&#xe905;" glyph-name="cube" d="M149.956 960h-119.966c-16.562 0-29.99-13.428-29.99-29.992v-121.966c0-16.564 13.426-29.992 29.992-29.992 16.564 0 29.992 13.428 29.992 29.992v91.974h89.974c16.564 0 29.992 13.428 29.992 29.992-0.002 16.564-13.43 29.992-29.994 29.992zM993.718 960h-119.966c-16.564 0-29.993-13.428-29.993-29.992s13.427-29.992 29.993-29.992h89.973v-91.974c0-16.564 13.429-29.992 29.993-29.992s29.991 13.428 29.991 29.992v121.966c0 16.564-13.427 29.992-29.991 29.992zM149.958-3.725h-89.974v91.974c0 16.564-13.428 29.991-29.992 29.991s-29.992-13.427-29.992-29.991v-121.967c0-16.564 13.426-29.991 29.992-29.991h119.966c16.564 0 29.992 13.427 29.992 29.991s-13.428 29.993-29.992 29.993zM993.718 118.239c-16.564 0-29.993-13.427-29.993-29.991v-91.974h-89.973c-16.564 0-29.993-13.429-29.993-29.993s13.429-29.991 29.993-29.991h119.966c16.564 0 29.991 13.427 29.991 29.991v121.967c0 16.564-13.427 29.991-29.991 29.991zM944.536 713.955l-417.708 242.004c-9.298 5.388-20.771 5.388-30.069 0l-417.877-242.002c-9.212-5.339-14.962-15.276-14.962-25.932 0-0.061 0.006-0.121 0.006-0.178v-479.848c0-10.758 5.846-20.826 15.26-26.126l417.575-241.832c4.497-2.607 9.849-4.041 15.036-4.041 5.413 0 10.703 1.532 15.034 4.041l417.405 241.834c0.070 0.039 0.139 0.080 0.209 0.119 9.673 6.982 14.887 12.847 15.034 25.643 0.002 0.119 0.010 0.238 0.010 0.358v479.848c0 0.059 0.006 0.119 0.006 0.178 0 10.666-5.753 20.605-14.961 25.934zM481.802 18.029l-327.652 189.833 252.599 144.859c14.369 8.239 19.337 26.567 11.096 40.935-8.239 14.371-26.567 19.335-40.937 11.096l-253.004-144.984v376.414l357.898-205.539v-412.615zM511.795 482.589l-357.689 205.523 357.689 207.235 357.687-207.235-357.687-205.523zM899.703 259.768l-253.022 144.986c-14.369 8.237-32.696 3.275-40.935-11.096-8.243-14.371-3.275-32.696 11.096-40.935l252.598-144.857-327.655-189.833v412.611l357.917 205.539v-376.414h0.002z" />
<glyph unicode="&#xe906;" glyph-name="cube2" d="M993.999 960h-663.998c-8.122 0-15.778-3.352-21.219-8.792l-299.989-299.989c-5.658-5.652-8.764-13.365-8.788-21.129 0-0.029-0.004-0.059-0.004-0.090v-663.998c0-0.031 0.004-0.061 0.004-0.088 0.052-16.716 13.696-29.913 29.996-29.913h664c7.703 0 15.497 3.072 21.217 8.792l299.991 299.991c5.31 5.306 8.792 13.009 8.792 21.217v664c0 16.408-13.326 30-30.001 30zM299.999 857.574v-197.573h-197.573l197.573 197.573zM60 600.001h239.999v-321.575l-239.999-239.999v561.574zM664.001-4h-561.575l240 240.001h321.575v-240.001zM664.001 295.999h-304.001v304.001h304.001v-304.001zM681.574 660.001h-321.575v239.999h561.574l-239.999-239.999zM723.999 38.427v197.575h197.575l-197.575-197.575zM964 295.999h-240.001v321.575l240.001 240v-561.575z" />
<glyph unicode="&#xe907;" glyph-name="cog" d="M830.757 538.274c2.058 7.686 0.981 15.874-2.998 22.764l-60 103.926c-3.977 6.889-10.531 11.917-18.215 13.978-7.682 2.058-15.874 0.981-22.764-2.998l-39.676-22.907c-24.865 21.090-53.733 37.581-85.133 48.626v46.338c0 16.569-13.431 30.001-29.999 30.001h-120.001c-16.568 0-29.999-13.432-29.999-30.001v-46.338c-31.4-11.045-60.271-27.535-85.133-48.626l-39.676 22.907c-6.889 3.979-15.088 5.059-22.764 2.998-7.686-2.058-14.238-7.086-18.215-13.978l-60.001-103.926c-3.978-6.889-5.056-15.079-2.998-22.764 2.060-7.686 7.088-14.238 13.978-18.215l40.038-23.114c-3.547-17.246-5.233-33.176-5.233-48.945s1.686-31.697 5.229-48.943l-40.038-23.114c-6.89-3.979-11.918-10.533-13.978-18.217-2.058-7.686-0.98-15.874 2.998-22.764l60.001-103.924c3.977-6.892 10.531-11.919 18.215-13.98 7.688-2.060 15.876-0.981 22.764 2.998l39.676 22.907c24.865-21.090 53.733-37.581 85.133-48.626v-46.338c0-16.568 13.431-30.001 29.999-30.001h120.001c16.568 0 29.999 13.433 29.999 30.001v46.338c31.4 11.045 60.271 27.535 85.133 48.626l39.676-22.907c6.889-3.977 15.084-5.054 22.764-2.998 7.686 2.058 14.238 7.086 18.215 13.98l60 103.924c3.979 6.889 5.057 15.079 2.998 22.764s-7.088 14.238-13.978 18.217l-40.038 23.114c3.547 17.246 5.233 33.174 5.233 48.943s-1.686 31.699-5.229 48.945l40.038 23.114c6.889 3.977 11.915 10.529 13.978 18.215zM713.39 503.677c5.853-21.092 8.579-38.783 8.579-55.677s-2.726-34.585-8.579-55.675c-3.658-13.181 2.060-27.167 13.908-34.005l33.499-19.337-29.999-51.96-32.856 18.967c-11.846 6.838-26.814 4.803-36.399-4.954-26.1-26.558-59.683-45.744-97.124-55.476-13.22-3.439-22.452-15.374-22.452-29.037v-38.523h-59.998v38.523c0 13.662-9.23 25.598-22.452 29.037-37.442 9.732-71.025 28.916-97.124 55.476-9.587 9.759-24.562 11.794-36.399 4.954l-32.856-18.967-29.999 51.96 33.499 19.337c11.848 6.838 17.566 20.824 13.908 34.005-5.849 21.090-8.575 38.781-8.575 55.675s2.726 34.585 8.579 55.677c3.658 13.179-2.060 27.165-13.908 34.003l-33.499 19.339 29.999 51.96 32.856-18.969c11.846-6.836 26.812-4.803 36.399 4.954 26.1 26.561 59.683 45.744 97.124 55.478 13.22 3.437 22.452 15.374 22.452 29.034v38.523h59.998v-38.523c0-13.66 9.23-25.598 22.452-29.034 37.439-9.734 71.025-28.916 97.124-55.478 9.585-9.757 24.558-11.79 36.399-4.954l32.854 18.969 30.001-51.96-33.501-19.339c-11.85-6.838-17.568-20.824-13.91-34.003zM512 598c-82.711 0-150-67.289-150-150s67.289-150 150-150c82.711 0 150 67.289 150 150s-67.289 150-150 150zM512 358.001c-49.625 0-89.999 40.374-89.999 89.999s40.374 89.999 89.999 89.999c49.625 0 89.999-40.374 89.999-89.999s-40.374-89.999-89.999-89.999zM915.046 723.769c12.2 12.2 7.248 30.706 7.248 30.706l-42.426 127.279c-5.241 15.72-22.233 24.216-37.949 18.974-15.716-5.24-24.211-22.23-18.973-37.948l3.607-10.818c-26.921 20.49-55.931 38.548-86.471 53.696-71.672 35.55-150.542 54.342-228.082 54.342-136.020 0-264.389-53.462-361.462-150.536-97.078-97.075-150.538-225.446-150.538-361.464 0-62.822 13.198-127.177 39.222-191.285 4.732-11.657 15.958-18.723 27.806-18.723 3.758 0 7.58 0.711 11.276 2.21 15.352 6.234 22.744 23.73 16.512 39.082-23.104 56.904-34.816 113.668-34.816 168.716 0 249.233 202.767 452 452 452 91.482 0 183.831-30.432 260.555-83.212-14.664 3.014-29.604-5.33-34.458-19.888-5.237-15.718 3.256-32.708 18.975-37.948l127.279-42.427c0 0 17.936-5.513 30.695 7.244zM101.723 141.521l42.426-127.281c4.192-12.573 15.894-20.523 28.458-20.521 3.144 0 6.344 0.498 9.49 1.546 15.718 5.239 24.212 22.227 18.974 37.947l-3.606 10.818c26.92-20.49 55.93-38.547 86.47-53.699 71.68-35.547 150.551-54.34 228.090-54.34 136.020 0 264.389 53.461 361.462 150.536 97.077 97.075 150.538 225.446 150.538 361.464 0 62.822-13.197 127.179-39.221 191.285-6.232 15.352-23.732 22.743-39.082 16.513-15.352-6.234-22.745-23.73-16.513-39.082 23.103-56.904 34.816-113.668 34.816-168.716 0-249.233-202.766-452-452-452-91.48 0-183.831 30.431-260.555 83.214 14.666-3.015 29.604 5.327 34.458 19.888 5.237 15.718-3.256 32.707-18.975 37.947l-127.28 42.426c-17.784 5.927-30.704-7.248-30.704-7.248-12.462-12.46-7.246-30.7-7.246-30.7z" />
<glyph unicode="&#xe908;" glyph-name="cube-download" d="M288.121 542.245l208.867-120.578c9.284-5.36 20.716-5.36 29.999 0l208.869 120.578c9.282 5.362 15 15.264 15 25.983v241.192c0 10.718-5.718 20.622-15 25.982l-208.869 120.58c-9.286 5.358-20.713 5.358-29.999 0l-208.867-120.58c-9.284-5.36-15.002-15.262-15.002-25.982v-241.194c0-10.717 5.72-20.621 15.002-25.981zM690.856 585.548l-148.867-85.942v171.899l148.867 85.953v-171.91zM511.988 895.36l148.867-85.942-148.867-85.953-148.867 85.953 148.867 85.942zM333.119 757.458l148.869-85.953v-171.899l-148.869 85.942v171.91zM1021.757 918.634c6.273 15.334-1.073 32.852-16.407 39.126-15.35 6.272-32.854-1.076-39.123-16.408l-281.573-688.286h-345.311l-281.572 688.286c-6.27 15.332-23.774 22.68-39.124 16.408-15.334-6.274-22.68-23.792-16.406-39.126l286.958-701.454v-92.647h-66.4c-16.568 0-30-13.433-30-30.001v-98.531h-98.532c-39.762-1.477-39.732-58.538 0-60h835.465c39.762 1.477 39.733 58.538 0 60h-98.533v98.533c0 16.568-13.433 30.001-29.999 30.001h-66.4v92.645l286.958 701.454zM349.2 193.067h325.599v-68.534h-325.599v68.534zM771.199 64.535v-68.534h-518.4v68.534h518.4z" />
<glyph unicode="&#xe909;" glyph-name="comp-cube" horiz-adv-x="1347" d="M1268.421 209.144h-26.317v632.435c0 65.297-53.124 118.421-118.42 118.421h-900c-65.298 0-118.421-53.124-118.421-118.421v-632.435h-26.316c-43.532 0-78.947-35.417-78.947-78.948v-107.843c0-43.531 35.416-78.948 78.947-78.948h1189.473c43.531 0 78.948 35.417 78.948 78.948v107.843c0 43.531-35.417 78.948-78.948 78.948zM184.21 841.579c0 21.766 17.708 39.474 39.474 39.474h900c21.765 0 39.473-17.708 39.473-39.474v-632.435h-978.946v632.435zM1268.421 22.353h-1189.473v107.843h1189.473l0.049-107.841c0 0-0.013-0.003-0.049-0.003zM662.735 687.109l-149.383 74.789c-18.912 9.468-41.488 9.468-60.397 0l-149.388-74.792c-22.978-11.509-37.252-34.622-37.252-60.319v-163.393c0-25.7 14.276-48.815 37.26-60.322l149.38-74.779c19.125-9.574 41.82-9.302 60.394 0l149.385 74.782c22.981 11.504 37.257 34.619 37.257 60.319v163.393c0.003 25.697-14.271 48.81-37.257 60.322zM443.68 421.225l-98.417 49.268v109.681l98.417-49.271v-109.678zM483.156 599.428l-89.185 44.649 89.185 44.652 89.185-44.652-89.185-44.649zM621.048 470.493l-98.42-49.268v109.676l98.42 49.271v-109.678z" />
<glyph unicode="&#xe90a;" glyph-name="notepad" horiz-adv-x="901" d="M883.976 656.835l-103.416 51.708v101.458c0 16.568-13.433 30-30.001 30-16.542 0-29.999 13.458-29.999 30s13.457 30 29.999 30c16.568 0 30.001 13.432 30.001 30s-13.433 30-30.001 30h-659.999c-49.626 0-90-40.374-90-90v-843.999c0-49.627 40.374-90.001 90-90.001h659.999c16.568 0 30.001 13.433 30.001 30.001v105.458l103.416 51.708c10.164 5.083 16.583 15.471 16.583 26.833v480c0 11.364-6.418 21.75-16.583 26.835zM780.56 431.458l59.998 29.999v-112.916l-59.998-30.001v112.919zM840.559 611.459v-82.919l-59.998-29.999v142.918l59.998-29.999zM90.56 900h575.159c-3.33-9.39-5.159-19.484-5.159-30s1.829-20.61 5.159-30h-575.159c-16.542 0-30 13.458-30 30s13.458 30 30 30zM720.56-4h-630c-16.542 0-30 13.457-30 30.001v759.159c9.39-3.33 19.484-5.16 30-5.16h630v-784zM780.56 138.543v112.916l59.998 30.001v-112.919l-59.998-29.999zM630.559 719.999h-479.999c-16.568 0-30-13.431-30-29.999v-239.999c0-16.568 13.432-30.001 30-30.001h479.999c16.568 0 30.001 13.433 30.001 30.001v239.999c0 16.568-13.433 29.999-30.001 29.999zM600.56 480h-420v180.001h420v-180.001zM510.56 359.999h-240.001c-16.566 0-29.999-13.431-29.999-29.999s13.433-30.001 29.999-30.001h240.001c16.568 0 29.999 13.433 29.999 30.001s-13.431 29.999-29.999 29.999z" />
<glyph unicode="&#xe90b;" glyph-name="info-rounded" d="M512 960c-282.982 0-512-228.991-512-512 0-282.978 228.991-512 512-512 282.982 0 512 228.993 512 512 0 282.978-228.993 512-512 512zM512 7.442c-242.924 0-440.558 197.632-440.558 440.558s197.634 440.558 440.558 440.558c242.924 0 440.558-197.632 440.558-440.558s-197.634-440.558-440.558-440.558zM512.053 533.219c-30.327 0-51.892-12.808-51.892-31.676v-256.772c0-16.177 21.565-32.348 51.892-32.348 28.981 0 52.566 16.171 52.566 32.348v256.776c0 18.866-23.585 31.672-52.566 31.672zM512.061 691.599c-31.001 0-55.261-22.239-55.261-47.849 0-25.612 24.263-48.525 55.261-48.525 30.329 0 54.591 22.913 54.591 48.525 0 25.61-24.265 47.849-54.591 47.849z" />
<glyph unicode="&#xe90c;" glyph-name="ownload-bordered" d="M968.155 904.154c-36.012 36.010-83.894 55.842-134.822 55.842l-642.665 0.004c-105.136-0.006-190.668-85.54-190.666-190.668l-0.002-642.667c0.002-105.132 85.536-190.665 190.67-190.665h642.663c105.134 0 190.667 85.533 190.667 190.667v642.663c0 50.93-19.833 98.812-55.845 134.824zM964 126.667c0-72.051-58.616-130.666-130.666-130.666h-642.663c-72.050 0-130.668 58.618-130.67 130.666l0.002 642.667c-0.002 72.046 58.616 130.662 130.668 130.666l642.663-0.004c34.902 0 67.717-13.59 92.396-38.268 24.68-24.68 38.271-57.494 38.271-92.398v-642.663zM692.199 525.017c-11.715 11.713-30.71 11.715-42.426 0l-107.835-107.842-0.002 320.025c0 16.568-13.433 30-30.001 30s-29.999-13.432-29.999-30l0.002-320.031-107.844 107.844c-11.715 11.715-30.712 11.715-42.426 0-11.717-11.717-11.717-30.712 0-42.426l159.056-159.052c5.626-5.628 13.255-8.788 21.211-8.788s15.589 3.162 21.215 8.788l159.052 159.056c11.713 11.715 11.713 30.71-0.002 42.426zM801.2 188.801h-578.4c-16.568 0-30-13.433-30-30.001s13.432-29.999 30-29.999h578.4c16.568 0 29.999 13.431 29.999 29.999 0 16.57-13.431 30.001-29.999 30.001z" />
</font></defs></svg>